module modernc.org/libpcre2-posix

go 1.20

require (
	modernc.org/ccgo/v3 v3.16.15
	modernc.org/ccgo/v4 v4.7.0
	modernc.org/libc v1.38.1
	modernc.org/libpcre2-8 v0.1.1
)

require (
	github.com/dustin/go-humanize v1.0.1 // indirect
	github.com/google/uuid v1.3.0 // indirect
	github.com/kballard/go-shellquote v0.0.0-20180428030007-95032a82bc51 // indirect
	github.com/mattn/go-isatty v0.0.16 // indirect
	github.com/remyoudompheng/bigfft v0.0.0-20230129092748-24d4a6f8daec // indirect
	golang.org/x/mod v0.14.0 // indirect
	golang.org/x/sys v0.14.0 // indirect
	golang.org/x/tools v0.16.1 // indirect
	lukechampine.com/uint128 v1.2.0 // indirect
	modernc.org/cc/v3 v3.41.0 // indirect
	modernc.org/cc/v4 v4.18.2 // indirect
	modernc.org/gc/v2 v2.3.0 // indirect
	modernc.org/mathutil v1.6.0 // indirect
	modernc.org/memory v1.7.2 // indirect
	modernc.org/opt v0.1.3 // indirect
	modernc.org/sortutil v1.2.0 // indirect
	modernc.org/strutil v1.2.0 // indirect
	modernc.org/token v1.1.0 // indirect
)
